[
   {
      "id":"de",
      "language":"de",
      "country":"de",
      "currency":"€",
      "isoCurrency":"EUR",
      "showI18n":1,
      "sortOrder":200,
      "active":1
   },
   {
      "id":"uk",
      "language":"en",
      "country":"uk",
      "currency":"£",
      "isoCurrency":"GBP",
      "showI18n":1,
      "sortOrder":100,
      "active":1
   },
   {
      "id":"nl",
      "language":"en",
      "country":"nl",
      "currency":"€",
      "isoCurrency":"EUR",
      "showI18n":1,
      "sortOrder":300,
      "active":1
   },
   {
      "id":"it",
      "language":"en",
      "country":"it",
      "currency":"€",
      "isoCurrency":"EUR",
      "showI18n":1,
      "sortOrder":400,
      "active":1
   },
   {
      "id":"ie",
      "language":"en",
      "country":"ie",
      "currency":"€",
      "isoCurrency":"EUR",
      "showI18n":1,
      "sortOrder":500,
      "active":1
   },
   {
      "id":"fr",
      "language":"en",
      "country":"fr",
      "currency":"€",
      "isoCurrency":"EUR",
      "showI18n":1,
      "sortOrder":600,
      "active":1
   }
]