[
  {
      "id": "ios-homescreen",
      "topSlider": [
           {
               "tag": "athleisure-trend",
               "sortOrder":100,
               "imageUrl": "homepage/Athleisure_style_main_app_dutch_cw35.jpg"
           }
        ],
      "bottomLeftBanner": {
         "categoryId":"women|shoes",
         "title":"Shoes",
         "imageUrl":"_events/Shoes_square_app_german_cw35.jpg"
      },
      "bottomRightBanner": {
         "categoryId":"women|clothing|tops-and-t-shirts",
         "title":"Tops & T-Shirts",
         "imageUrl":"_events/Tops&shirts_square_app_german_cw35.jpg"
      },
      "feedTag": "appfeed",
      "feedTagMen": "newestin"
  }
]
