{
    "Flash Sale"      : "priceactions_exclusivepromo",
    "Sweet Deals"      : "bestdeals",
    "Festival Collection"      : "festival",
    "Sun Is Up"      : "sunisup1",
    "Step It Up"      : "stepitup",
    "All In One"      : "allinone1",
    "Step It Easy"      : "stepiteasy1",
    "New Season Heels"      : "newseasonheels",
    "Make A Splash"      : "makeasplash1",
    "Get Fresh"      : "getfresh1",
    "Bag It Up"      : "bagitup"
}